....
----------------------------------------------------------------------
Ran 4 tests in 0.000s

OK
Name               Stmts   Miss Branch BrPart  Cover   Missing
--------------------------------------------------------------
Diplomacy.py          74      0     40      0   100%
TestDiplomacy.py      32      0      2      1    97%   72->exit
--------------------------------------------------------------
TOTAL                106      0     42      1    99%
